<?xml version="1.0" encoding="utf-8"?>
<!-- Generator: Adobe Illustrator 23.0.2, SVG Export Plug-In . SVG Version: 6.00 Build 0)  -->
<svg version="1.1" id="Capa_1" xmlns="http://www.w3.org/2000/svg" xmlns:xlink="http://www.w3.org/1999/xlink" x="0px" y="0px"
	 viewBox="0 0 96.3101 41.3956" style="enable-background:new 0 0 96.3101 41.3956;" xml:space="preserve">
<g>
	<g>
		<g>
			<g>
				<g>
					<g>
						<defs>
							<path id="SVGID_1_" d="M50.9101,14.7c0-4.6,3.4-8.2,7.7-8.2c4.5,0,7.9,3.5,7.9,8.2c0,4.6-3.3,8.1-7.7,8.1l0,0
								C54.4101,22.7,50.9101,19.1,50.9101,14.7 M45.7101,14.5c-0.1,7.4,5.4,13,12.8,13.1c7.3,0,13.1-5.5,13.2-12.5
								c0.1-7.6-5.4-13.4-12.8-13.6c-0.1,0-0.2,0-0.3,0C51.5101,1.6,45.9101,7.2,45.7101,14.5"/>
						</defs>
						<use xlink:href="#SVGID_1_"  style="overflow:visible;fill:#FFFFFF;"/>
						<clipPath id="SVGID_2_">
							<use xlink:href="#SVGID_1_"  style="overflow:visible;"/>
						</clipPath>
						<rect x="45.6101" y="1.6" style="clip-path:url(#SVGID_2_);fill:#FFFFFF;" width="26.2" height="26.1"/>
					</g>
				</g>
			</g>
		</g>
	</g>
	<g>
		<g>
			<g>
				<g>
					<g>
						<defs>
							<path id="SVGID_3_" d="M29.1101,0.3c-4.9,0.7-8.5,3.3-10.2,8s-1.3,9.2,2,13.2c0.3,0.4,0.9,1,1.3,1l8.6-0.9
								c-0.1-0.1-1.8-0.7-2-0.8c-4.8-1.8-6.8-6-5.1-10.8c1.1-3.1,3.4-4.7,6.5-5c3-0.3,5.7,0.5,7.3,3.4c0.2,0.3,0.7,0.7,1.1,0.7
								c1.2,0.1,2.3,0.1,3.7,0c0.6,0,1-0.7,0.7-1.2c-0.7-1.4-1.3-2.6-2.1-3.6c-2.5-3.1-5.8-4.3-9.5-4.3
								C30.8101,0.1,30.0101,0.2,29.1101,0.3"/>
						</defs>
						<use xlink:href="#SVGID_3_"  style="overflow:visible;fill:#FFFFFF;"/>
						<clipPath id="SVGID_4_">
							<use xlink:href="#SVGID_3_"  style="overflow:visible;"/>
						</clipPath>
						<rect x="17.3101" y="0.1" style="clip-path:url(#SVGID_4_);fill:#FFFFFF;" width="26.2" height="22.4"/>
					</g>
				</g>
			</g>
		</g>
	</g>
	<g>
		<g>
			<g>
				<g>
					<g>
						<defs>
							<path id="SVGID_5_" d="M37.2101,11.8h-5.7c-0.3,0-0.6,0.3-0.6,0.6v2.8c0,0.7,0.5,1.2,1.2,1.2h6.1c-1.1,2.8-2.8,4.9-5.3,5.9
								c-2.4,0.9-4.1,1-9.6,1.1c-0.2,0-0.2,0.2-0.1,0.3c5.7,3.9,11.8,3.1,16.6-1.4c0.2,1.4,0.3,2.8,0.3,3.4c0,0.2,0.2,0.3,0.3,0.4
								c0.6,0.1,1.8,0.3,3-0.2c0.1-0.1,0.2-0.2,0.2-0.4V12.7c0-0.5-0.4-0.9-0.9-0.9H37.2101z"/>
						</defs>
						<use xlink:href="#SVGID_5_"  style="overflow:visible;fill:#FFFFFF;"/>
						<clipPath id="SVGID_6_">
							<use xlink:href="#SVGID_5_"  style="overflow:visible;"/>
						</clipPath>
						<rect x="23.0101" y="11.8" style="clip-path:url(#SVGID_6_);fill:#FFFFFF;" width="20.6" height="15.9"/>
					</g>
				</g>
			</g>
		</g>
	</g>
	<g>
		<path style="fill:#FFFFFF;" d="M4.7369,37.9937H1.2402l-0.7665,1.6967H0l2.7734-6.0289h0.439l2.7734,6.0289H5.512L4.7369,37.9937z
			 M4.5732,37.6232l-1.5848-3.4793l-1.5758,3.4793H4.5732z"/>
		<path style="fill:#FFFFFF;" d="M12.2983,35.1947v4.0133c0,0.7463-0.1808,1.2975-0.5426,1.6535
			c-0.3616,0.3559-0.9072,0.5342-1.6364,0.5342c-0.4133,0-0.8038-0.0634-1.1713-0.1896c-0.3675-0.1265-0.6631-0.3014-0.8868-0.5251
			l0.2325-0.3276c0.2238,0.2068,0.4935,0.3675,0.8095,0.4826c0.3157,0.1148,0.6515,0.1721,1.0076,0.1721
			c0.597,0,1.0391-0.1422,1.3261-0.4263c0.2872-0.2841,0.4307-0.725,0.4307-1.322v-0.7577c-0.1838,0.3272-0.4391,0.58-0.7665,0.7577
			c-0.3272,0.178-0.6947,0.267-1.1022,0.267c-0.4192,0-0.7997-0.0932-1.1414-0.2799c-0.3416-0.1866-0.61-0.4465-0.8051-0.7793
			c-0.1954-0.333-0.2928-0.7093-0.2928-1.1284c0-0.4192,0.0974-0.7951,0.2928-1.128c0.1951-0.3331,0.4635-0.5915,0.8051-0.7753
			c0.3417-0.1836,0.7222-0.2755,1.1414-0.2755c0.4133,0,0.7865,0.0918,1.1196,0.2755c0.3328,0.1838,0.5882,0.4423,0.7664,0.7753
			v-1.0164H12.2983z M10.9806,38.9108c0.2813-0.152,0.5009-0.3646,0.6587-0.6372c0.158-0.2728,0.2369-0.584,0.2369-0.9345
			c0-0.3502-0.0789-0.6602-0.2369-0.9301c-0.1579-0.2701-0.3775-0.4806-0.6587-0.6328c-0.2813-0.1522-0.5974-0.2284-0.9473-0.2284
			c-0.3503,0-0.6648,0.0762-0.9432,0.2284c-0.2784,0.1522-0.4967,0.3627-0.6545,0.6328c-0.1581,0.2699-0.2368,0.58-0.2368,0.9301
			c0,0.3505,0.0787,0.6617,0.2368,0.9345c0.1578,0.2726,0.3761,0.4852,0.6545,0.6372c0.2784,0.1523,0.5929,0.2284,0.9432,0.2284
			C10.3833,39.1392,10.6994,39.0631,10.9806,38.9108"/>
		<path style="fill:#FFFFFF;" d="M19.2743,37.5457h-3.8671c0.0115,0.3504,0.1005,0.6618,0.267,0.9346
			c0.1664,0.2726,0.3919,0.4838,0.676,0.6328c0.2843,0.1496,0.6044,0.2241,0.9603,0.2241c0.2929,0,0.5642-0.053,0.814-0.1595
			c0.2497-0.1062,0.4578-0.2626,0.6243-0.4693l0.2498,0.2842c-0.1954,0.2355-0.4407,0.4164-0.7364,0.5428
			c-0.2958,0.1262-0.6157,0.1892-0.9603,0.1892c-0.4478,0-0.847-0.0974-1.197-0.2927c-0.3501-0.1952-0.6243-0.4651-0.8225-0.8095
			c-0.1979-0.3447-0.2971-0.7377-0.2971-1.1801c0-0.4361,0.0932-0.8281,0.28-1.1755c0.1865-0.3471,0.4435-0.6185,0.7707-0.8138
			c0.3274-0.1949,0.6946-0.2927,1.1023-0.2927c0.4077,0,0.7737,0.0961,1.0981,0.2884c0.3243,0.1925,0.58,0.4607,0.7666,0.8053
			c0.1865,0.3446,0.2799,0.7349,0.2799,1.1712L19.2743,37.5457z M16.2859,35.7501c-0.2529,0.1408-0.4553,0.3389-0.6072,0.5942
			c-0.1522,0.2557-0.2398,0.5442-0.2626,0.8657h3.445c-0.0174-0.3215-0.1035-0.6084-0.2585-0.861
			c-0.155-0.2526-0.359-0.4509-0.6114-0.5945c-0.2528-0.1431-0.5369-0.2154-0.8528-0.2154
			C16.8227,35.539,16.5384,35.6096,16.2859,35.7501"/>
		<path style="fill:#FFFFFF;" d="M25.5008,35.6512c0.3272,0.3272,0.4908,0.7979,0.4908,1.4123v2.6267h-0.4305V37.098
			c0-0.5051-0.1278-0.8898-0.3833-1.154c-0.2557-0.264-0.6131-0.3962-1.0723-0.3962c-0.5283,0-0.9444,0.158-1.2487,0.4737
			c-0.3045,0.3157-0.4564,0.7406-0.4564,1.2745v2.3942h-0.4308v-4.4955h0.4135v0.9732c0.155-0.3158,0.3859-0.5628,0.6932-0.7407
			c0.307-0.178,0.6704-0.2668,1.0895-0.2668C24.7285,35.1604,25.1737,35.3237,25.5008,35.6512"/>
		<path style="fill:#FFFFFF;" d="M31.3485,39.4061c-0.1091,0.1035-0.2455,0.1822-0.4092,0.237
			c-0.1637,0.0544-0.3346,0.0817-0.5126,0.0817c-0.3904,0-0.6918-0.1076-0.9042-0.3229c-0.2125-0.2154-0.3187-0.5154-0.3187-0.8999
			V35.565h-0.8266v-0.3703h0.8266v-0.9819h0.4307v0.9819h1.4296v0.3703h-1.4296v2.8939c0,0.2927,0.0701,0.5151,0.2109,0.6672
			c0.1406,0.1522,0.3487,0.2283,0.6243,0.2283c0.2813,0,0.5138-0.0832,0.6976-0.2496L31.3485,39.4061z"/>
		<path style="fill:#FFFFFF;" d="M37.5321,37.5457h-3.8671c0.0115,0.3504,0.1005,0.6618,0.267,0.9346
			c0.1664,0.2726,0.3919,0.4838,0.6762,0.6328c0.2841,0.1496,0.6042,0.2241,0.9601,0.2241c0.2929,0,0.5644-0.053,0.814-0.1595
			c0.2497-0.1062,0.4578-0.2626,0.6245-0.4693l0.2496,0.2842c-0.1954,0.2355-0.4407,0.4164-0.7364,0.5428
			c-0.2958,0.1262-0.6157,0.1892-0.9601,0.1892c-0.448,0-0.8472-0.0974-1.1973-0.2927c-0.3501-0.1952-0.6243-0.4651-0.8225-0.8095
			c-0.1979-0.3447-0.2971-0.7377-0.2971-1.1801c0-0.4361,0.0934-0.8281,0.28-1.1755c0.1865-0.3471,0.4435-0.6185,0.7707-0.8138
			c0.3274-0.1949,0.6946-0.2927,1.1025-0.2927c0.4075,0,0.7735,0.0961,1.0981,0.2884c0.3241,0.1925,0.5798,0.4607,0.7664,0.8053
			c0.1865,0.3446,0.2801,0.7349,0.2801,1.1712L37.5321,37.5457z M34.5437,35.7501c-0.2527,0.1408-0.4553,0.3389-0.6072,0.5942
			c-0.152,0.2557-0.2398,0.5442-0.2626,0.8657h3.4447c-0.0171-0.3215-0.1032-0.6084-0.2582-0.861
			c-0.155-0.2526-0.359-0.4509-0.6114-0.5945c-0.2528-0.1431-0.5369-0.2154-0.8526-0.2154
			C35.0804,35.539,34.7962,35.6096,34.5437,35.7501"/>
		<path style="fill:#FFFFFF;" d="M40.331,39.561c-0.3272-0.1089-0.5829-0.2467-0.7665-0.4133l0.1981-0.3447
			c0.1836,0.1552,0.4206,0.2844,0.7105,0.3877c0.2899,0.1035,0.5927,0.155,0.9085,0.155c0.4534,0,0.788-0.0745,1.0034-0.2239
			c0.2153-0.1494,0.3229-0.3559,0.3229-0.6201c0-0.1894-0.059-0.3387-0.1765-0.4478c-0.1178-0.1091-0.2627-0.1896-0.4348-0.2413
			c-0.1723-0.0516-0.4107-0.1062-0.715-0.1635c-0.3561-0.0633-0.6432-0.1321-0.8612-0.2068
			c-0.2182-0.0747-0.4047-0.195-0.5597-0.3616c-0.155-0.1665-0.2325-0.3965-0.2325-0.6891c0-0.356,0.1476-0.6503,0.4434-0.8829
			c0.2957-0.2325,0.7162-0.3485,1.2618-0.3485c0.2871,0,0.5712,0.0401,0.8527,0.1204c0.2811,0.0805,0.511,0.1866,0.6889,0.3185
			l-0.1981,0.3447c-0.1838-0.1321-0.3934-0.2325-0.6288-0.3016c-0.2353-0.0688-0.4766-0.1035-0.7234-0.1035
			c-0.4192,0-0.735,0.0778-0.9474,0.2328c-0.2124,0.155-0.3185,0.3589-0.3185,0.6116c0,0.2009,0.0602,0.3573,0.1808,0.4693
			c0.1205,0.1119,0.2684,0.1952,0.4436,0.2496c0.1749,0.0548,0.4205,0.1135,0.7362,0.1767c0.3503,0.0632,0.633,0.1305,0.8484,0.2023
			c0.2155,0.0718,0.3974,0.1881,0.547,0.3486c0.1491,0.161,0.2239,0.3823,0.2239,0.6633c0,0.3733-0.155,0.6718-0.4651,0.8956
			c-0.31,0.2241-0.7465,0.3358-1.3092,0.3358C41.0028,39.7247,40.6583,39.6703,40.331,39.561"/>
		<path style="fill:#FFFFFF;" d="M49.3997,33.6615h2.3854c0.6256,0,1.1814,0.1293,1.6666,0.3878
			c0.485,0.2583,0.8621,0.6159,1.1329,1.072c0.2697,0.4566,0.4042,0.9749,0.4042,1.5547c0,0.58-0.1345,1.0981-0.4042,1.5545
			c-0.2707,0.4566-0.6478,0.814-1.1329,1.0724c-0.4852,0.2581-1.041,0.3876-1.6666,0.3876h-2.3854V33.6615z M51.7509,39.2942
			c0.557,0,1.0475-0.1105,1.4724-0.3316c0.4251-0.221,0.7524-0.5296,0.9821-0.9258c0.2298-0.3963,0.3441-0.8498,0.3441-1.3608
			c0-0.511-0.1142-0.9646-0.3441-1.3607c-0.2296-0.3961-0.557-0.7046-0.9821-0.9257c-0.4249-0.2211-0.9154-0.3316-1.4724-0.3316
			h-1.9118v5.2363H51.7509z"/>
		<path style="fill:#FFFFFF;" d="M57.6932,34.002c-0.0688-0.0661-0.1034-0.148-0.1034-0.2456c0-0.0975,0.0346-0.1811,0.1034-0.2497
			c0.0688-0.0688,0.152-0.1035,0.2497-0.1035c0.0973,0,0.1807,0.0332,0.2499,0.0991c0.0688,0.0661,0.103,0.1481,0.103,0.2457
			c0,0.0974-0.0342,0.1806-0.103,0.2496c-0.0692,0.0688-0.1526,0.1033-0.2499,0.1033C57.8452,34.1009,57.762,34.068,57.6932,34.002
			 M57.7274,35.1947h0.4306v4.4955h-0.4306V35.1947z"/>
		<path style="fill:#FFFFFF;" d="M65.3751,35.1947v4.0133c0,0.7463-0.1807,1.2975-0.5423,1.6535
			c-0.3618,0.3559-0.9073,0.5342-1.6362,0.5342c-0.4137,0-0.8041-0.0634-1.1714-0.1896c-0.3675-0.1265-0.6632-0.3014-0.8873-0.5251
			l0.2326-0.3276c0.224,0.2068,0.4939,0.3675,0.8095,0.4826c0.3159,0.1148,0.6516,0.1721,1.0078,0.1721
			c0.5973,0,1.0389-0.1422,1.3263-0.4263c0.2868-0.2841,0.4306-0.725,0.4306-1.322v-0.7577
			c-0.1838,0.3272-0.4392,0.58-0.7664,0.7577c-0.3273,0.178-0.6948,0.267-1.1024,0.267c-0.4194,0-0.7998-0.0932-1.1413-0.2799
			c-0.3417-0.1866-0.6103-0.4465-0.8051-0.7793c-0.1954-0.333-0.2929-0.7093-0.2929-1.1284c0-0.4192,0.0975-0.7951,0.2929-1.128
			c0.1948-0.3331,0.4634-0.5915,0.8051-0.7753c0.3415-0.1836,0.7219-0.2755,1.1413-0.2755c0.4135,0,0.7862,0.0918,1.1197,0.2755
			c0.3326,0.1838,0.5882,0.4423,0.7662,0.7753v-1.0164H65.3751z M64.0576,38.9108c0.2812-0.152,0.5008-0.3646,0.659-0.6372
			c0.1579-0.2728,0.2367-0.584,0.2367-0.9345c0-0.3502-0.0788-0.6602-0.2367-0.9301c-0.1583-0.2701-0.3779-0.4806-0.659-0.6328
			c-0.2813-0.1522-0.5971-0.2284-0.9474-0.2284c-0.3502,0-0.6643,0.0762-0.9429,0.2284c-0.2784,0.1522-0.4964,0.3627-0.6543,0.6328
			c-0.1583,0.2699-0.2371,0.58-0.2371,0.9301c0,0.3505,0.0788,0.6617,0.2371,0.9345c0.1579,0.2726,0.3759,0.4852,0.6543,0.6372
			c0.2786,0.1523,0.5928,0.2284,0.9429,0.2284C63.4605,39.1392,63.7762,39.0631,64.0576,38.9108"/>
		<path style="fill:#FFFFFF;" d="M68.5186,34.002c-0.0688-0.0661-0.1034-0.148-0.1034-0.2456c0-0.0975,0.0346-0.1811,0.1034-0.2497
			c0.069-0.0688,0.1522-0.1035,0.2499-0.1035c0.0973,0,0.1807,0.0332,0.2497,0.0991c0.0688,0.0661,0.103,0.1481,0.103,0.2457
			c0,0.0974-0.0342,0.1806-0.103,0.2496c-0.069,0.0688-0.1524,0.1033-0.2497,0.1033C68.6708,34.1009,68.5876,34.068,68.5186,34.002
			 M68.553,35.1947h0.4306v4.4955H68.553V35.1947z"/>
		<path style="fill:#FFFFFF;" d="M74.3836,39.4061c-0.1093,0.1035-0.2454,0.1822-0.409,0.237
			c-0.1638,0.0544-0.3346,0.0817-0.5126,0.0817c-0.3904,0-0.6919-0.1076-0.9044-0.3229c-0.2123-0.2154-0.3185-0.5154-0.3185-0.8999
			V35.565h-0.8269v-0.3703h0.8269v-0.9819H72.67v0.9819h1.4294v0.3703H72.67v2.8939c0,0.2927,0.07,0.5151,0.2108,0.6672
			c0.1408,0.1522,0.349,0.2283,0.6244,0.2283c0.2813,0,0.5137-0.0832,0.6978-0.2496L74.3836,39.4061z"/>
		<path style="fill:#FFFFFF;" d="M79.7319,35.5863c0.2984,0.2846,0.4475,0.7022,0.4475,1.2532v2.8508h-0.4133v-0.8009
			c-0.1433,0.2639-0.3529,0.4693-0.6286,0.6157c-0.2756,0.1464-0.6057,0.2196-0.9905,0.2196c-0.4994,0-0.8944-0.1176-1.1842-0.3531
			c-0.29-0.2354-0.4347-0.5454-0.4347-0.9301c0-0.3731,0.1333-0.6761,0.4003-0.9087c0.2668-0.2324,0.6933-0.3486,1.2787-0.3486
			h1.5418v-0.3619c0-0.4188-0.1132-0.7377-0.3401-0.9559c-0.2271-0.218-0.5586-0.3273-0.995-0.3273
			c-0.2984,0-0.5841,0.052-0.857,0.1552c-0.2725,0.1033-0.5035,0.2412-0.6928,0.4134l-0.2153-0.3101
			c0.2239-0.2009,0.4937-0.3573,0.8093-0.4693c0.3157-0.112,0.6462-0.1679,0.9907-0.1679
			C79.0053,35.1603,79.4333,35.3023,79.7319,35.5863 M79.1588,39.1131c0.2613-0.1721,0.4581-0.4219,0.5902-0.7491V37.52h-1.5332
			c-0.4422,0-0.762,0.0804-0.96,0.2411c-0.1982,0.161-0.2973,0.3821-0.2973,0.6633c0,0.2927,0.1091,0.5238,0.3274,0.6931
			c0.218,0.1694,0.5255,0.2541,0.9213,0.2541C78.5804,39.3716,78.8979,39.2854,79.1588,39.1131"/>
		<rect x="83.3057" y="33.3" style="fill:#FFFFFF;" width="0.4306" height="6.3902"/>
		<path style="fill:#FFFFFF;" d="M90.7035,37.5457h-3.8667c0.0116,0.3504,0.1001,0.6618,0.2668,0.9346
			c0.1665,0.2726,0.392,0.4838,0.6761,0.6328c0.2843,0.1496,0.6042,0.2241,0.9603,0.2241c0.2927,0,0.5645-0.053,0.8141-0.1595
			c0.2495-0.1062,0.4575-0.2626,0.6242-0.4693l0.2497,0.2842c-0.1952,0.2355-0.4406,0.4164-0.7363,0.5428
			c-0.2955,0.1262-0.6158,0.1892-0.9604,0.1892c-0.4477,0-0.847-0.0974-1.1967-0.2927c-0.3504-0.1952-0.6246-0.4651-0.8226-0.8095
			c-0.198-0.3447-0.2971-0.7377-0.2971-1.1801c0-0.4361,0.0932-0.8281,0.28-1.1755c0.1862-0.3471,0.4433-0.6185,0.7709-0.8138
			c0.3268-0.1949,0.6942-0.2927,1.1022-0.2927c0.4078,0,0.7735,0.0961,1.0979,0.2884c0.3244,0.1925,0.5802,0.4607,0.7668,0.8053
			c0.1862,0.3446,0.28,0.7349,0.28,1.1712L90.7035,37.5457z M87.7152,35.7501c-0.2526,0.1408-0.4551,0.3389-0.6071,0.5942
			c-0.1522,0.2557-0.2401,0.5442-0.2625,0.8657h3.4446c-0.0171-0.3215-0.1032-0.6084-0.2583-0.861
			c-0.1551-0.2526-0.3588-0.4509-0.6115-0.5945c-0.2528-0.1431-0.5365-0.2154-0.8525-0.2154
			C88.2519,35.539,87.9679,35.6096,87.7152,35.7501"/>
		<path style="fill:#FFFFFF;" d="M93.5026,39.561c-0.3274-0.1089-0.5827-0.2467-0.7666-0.4133l0.1978-0.3447
			c0.1838,0.1552,0.4208,0.2844,0.7109,0.3877c0.2898,0.1035,0.5926,0.155,0.9087,0.155c0.4536,0,0.788-0.0745,1.0029-0.2239
			c0.2155-0.1494,0.3234-0.3559,0.3234-0.6201c0-0.1894-0.059-0.3387-0.1767-0.4478s-0.2627-0.1896-0.4347-0.2413
			c-0.1724-0.0516-0.4109-0.1062-0.7149-0.1635c-0.3562-0.0633-0.6431-0.1321-0.8615-0.2068
			c-0.218-0.0747-0.4046-0.195-0.5595-0.3616c-0.1549-0.1665-0.2328-0.3965-0.2328-0.6891c0-0.356,0.1479-0.6503,0.4435-0.8829
			c0.2957-0.2325,0.7162-0.3485,1.262-0.3485c0.2868,0,0.5709,0.0401,0.8521,0.1204c0.2815,0.0805,0.5114,0.1866,0.6891,0.3185
			l-0.1978,0.3447c-0.1838-0.1321-0.3934-0.2325-0.6289-0.3016c-0.2355-0.0688-0.4764-0.1035-0.7231-0.1035
			c-0.4194,0-0.7351,0.0778-0.9475,0.2328c-0.2127,0.155-0.3187,0.3589-0.3187,0.6116c0,0.2009,0.0604,0.3573,0.1807,0.4693
			c0.1207,0.1119,0.2684,0.1952,0.4435,0.2496c0.1754,0.0548,0.4203,0.1135,0.7365,0.1767
			c0.3502,0.0632,0.6331,0.1305,0.8482,0.2023c0.2157,0.0718,0.3975,0.1881,0.547,0.3486c0.1492,0.161,0.2239,0.3823,0.2239,0.6633
			c0,0.3733-0.1551,0.6718-0.465,0.8956c-0.3101,0.2241-0.7463,0.3358-1.309,0.3358C94.1742,39.7247,93.8297,39.6703,93.5026,39.561
			"/>
	</g>
</g>
</svg>
