<?xml version="1.0" encoding="utf-8"?>
<!-- Generator: Adobe Illustrator 23.0.1, SVG Export Plug-In . SVG Version: 6.00 Build 0)  -->
<svg version="1.1" id="Capa_1" xmlns="http://www.w3.org/2000/svg" xmlns:xlink="http://www.w3.org/1999/xlink" x="0px" y="0px"
	 width="40px" height="40px" viewBox="0 0 40 40" style="enable-background:new 0 0 40 40;" xml:space="preserve">
<style type="text/css">
	.st0{fill:#fff;}
</style>
<g>
	<path class="st0" d="M33.2812,40c-8.8542,0-17.7083,0-26.5625,0c-0.9625-0.3495-1.2462-1.0689-1.245-2.046
		c0.0154-11.9692,0.0154-23.9385,0-35.9078C5.4725,1.0692,5.7562,0.3496,6.7187,0c6.5104,0,13.0208,0,19.5312,0
		c0.1985,0.1818,0.4159,0.347,0.5925,0.548c2.3875,2.7184,4.7627,5.4475,7.1595,8.1576c0.3607,0.4078,0.5222,0.8254,0.5216,1.3681
		c-0.0103,9.2931-0.0143,18.5862,0.0027,27.8792C34.5281,38.9303,34.2443,39.6503,33.2812,40z M32.9264,10.3836
		c-0.1759,0-0.3178,0-0.4597,0c-2.0437,0-4.0874,0.0004-6.1312-0.0002c-0.851-0.0003-1.1034-0.2489-1.1036-1.087
		c-0.0006-2.4212-0.0002-4.8424-0.0002-7.2636c0-0.1495,0-0.299,0-0.447c-6.0858,0-12.1086,0-18.1513,0
		c0,8.3539,0,16.6886,0,25.0285c8.6272,0,17.2257,0,25.8459,0C32.9264,21.2088,32.9264,15.8255,32.9264,10.3836z M16.2768,28.6158
		c0,0.2259,0,0.3671,0,0.5083c0,1.4707,0,2.9414,0,4.4122c0,1.3796,0.0018,2.7592-0.0019,4.1388
		c-0.0005,0.1997,0.0061,0.3651,0.2732,0.3645c1.2465-0.0026,2.4976,0.0673,3.7381-0.0191
		c1.0872-0.0757,2.1225-0.4429,2.9399-1.2154c1.3178-1.2454,1.6119-2.834,1.3984-4.5496c-0.2381-1.9132-1.3752-3.0711-3.2017-3.5382
		c-0.6599-0.1688-1.3625-0.2281-2.0463-0.232C18.354,28.4794,17.331,28.5667,16.2768,28.6158z M8.0898,38.0239
		c0.7223,0,1.4058,0,2.1267,0c0-0.5798,0-1.1362,0-1.6926c0-0.5518,0-1.1037,0-1.5625c0.8397-0.1066,1.6093-0.1453,2.3506-0.3108
		c1.4875-0.3321,2.4174-1.5974,2.3419-3.0774c-0.0771-1.5125-1.0027-2.5916-2.5557-2.7674
		c-1.0895-0.1234-2.201-0.0627-3.3026-0.0618c-0.3179,0.0003-0.6357,0.0783-0.9609,0.1217
		C8.0898,31.8069,8.0898,34.8989,8.0898,38.0239z M26.1293,28.5502c0,3.191,0,6.3326,0,9.4703c0.724,0,1.4194,0,2.1619,0
		c0-1.2793,0-2.5317,0-3.8116c1.149,0,2.2503,0,3.3695,0c0-0.5823,0-1.1357,0-1.736c-1.1345,0-2.2467,0-3.3646,0
		c0-0.743,0-1.4388,0-2.1768c1.212,0,2.4008,0,3.6001,0c0-0.6074,0-1.1717,0-1.7459
		C29.9598,28.5502,28.0534,28.5502,26.1293,28.5502z"/>
	<path class="st0" d="M16.1815,9.1422c-0.3308,0.8749,0.0396,1.4677,0.7179,2.0248c2.1812,1.7915,4.3232,3.6305,6.4915,5.4378
		c0.1406,0.1172,0.3745,0.1648,0.5672,0.1707c1.391,0.0422,2.7852,0.0242,4.1726,0.1147c0.5523,0.036,1.1309,0.2194,1.6253,0.4753
		c0.9564,0.4951,1.3017,1.4999,0.9481,2.4529c-0.3745,1.0094-1.2416,1.529-2.3172,1.3179c-0.4234-0.0831-0.8603-0.243-1.2202-0.477
		c-1.2425-0.8081-2.4518-1.6672-3.6798-2.498c-0.1307-0.0884-0.3046-0.1759-0.4524-0.1667
		c-1.975,0.1225-3.9461,0.3094-5.8579,0.8423c-1.0604,0.2956-2.0861,0.7143-3.1338,1.0578
		c-0.2909,0.0954-0.3884,0.2825-0.4585,0.5535c-0.2546,0.9842-0.5623,1.9497-1.1888,2.7758
		c-0.4206,0.5546-0.9404,0.9714-1.6341,1.1264c-0.8958,0.2001-1.6416-0.4021-1.5968-1.3072
		c0.0328-0.6614,0.1708-1.2984,0.7376-1.736c0.8105-0.6257,1.6213-1.2517,2.449-1.8543c0.2085-0.1518,0.3639-0.2833,0.4288-0.5535
		c0.625-2.6027,1.2624-5.2025,1.9076-7.8003c0.0638-0.2568,0.0112-0.4161-0.1675-0.6133c-0.5573-0.6149-1.1223-1.2306-1.6016-1.9049
		c-0.2445-0.3439-0.3745-0.8031-0.4461-1.2287c-0.139-0.8265,0.4778-1.6458,1.3481-1.8931c0.84-0.2387,1.5913,0.0994,1.9512,0.9227
		c0.1491,0.3409,0.2579,0.7132,0.3055,1.0815C16.1487,8.0153,16.15,8.5764,16.1815,9.1422z M21.7249,16.8975
		c-2.0147-1.7296-3.9876-3.4233-5.9719-5.1267c-0.5564,2.2673-1.1065,4.509-1.6753,6.8266
		C16.5611,17.5839,19.1146,17.1653,21.7249,16.8975z M25.3677,17.8923c-0.0172,0.0535-0.0343,0.107-0.0515,0.1605
		c0.9192,0.5964,1.8326,1.2023,2.7628,1.781c0.177,0.1101,0.4183,0.1409,0.6342,0.1596c0.4749,0.041,0.75-0.1648,0.8969-0.6266
		c0.1217-0.383-0.0318-0.7768-0.4199-0.9843c-0.2144-0.1146-0.4517-0.2314-0.6875-0.2534
		C27.4594,18.0316,26.4129,17.9681,25.3677,17.8923z M14.811,9.2468c0.0516-0.0291,0.1033-0.0582,0.1549-0.0873
		c0.0343-0.7366,0.0305-1.4722-0.2122-2.1828c-0.0864-0.2531-0.2288-0.4773-0.5688-0.4004
		c-0.3615,0.0817-0.5809,0.3556-0.542,0.6967c0.0117,0.1025,0.0187,0.2188,0.0713,0.3011
		C14.0734,8.1358,14.4441,8.6901,14.811,9.2468z M10.3285,23.183c0.8317-0.0663,1.6799-1.1197,1.8458-2.2831
		C11.4476,21.6122,10.3856,21.9642,10.3285,23.183z"/>
	<path class="st0" d="M18.4564,36.412c-0.0066-0.1176-0.0172-0.2196-0.0172-0.3216c-0.001-1.8453,0.0078-3.6907-0.0089-5.5358
		c-0.0029-0.3174,0.1079-0.4224,0.3964-0.4059c0.5161,0.0296,1.0456-0.0047,1.5454,0.1014c1.015,0.2155,1.6536,0.8652,1.9064,1.8837
		c0.2095,0.8442,0.1676,1.6852-0.1167,2.4934c-0.3704,1.053-1.1698,1.6341-2.2612,1.7747
		C19.4319,36.4623,18.9489,36.412,18.4564,36.412z"/>
	<path class="st0" d="M10.2334,32.9335c0-0.9002,0-1.8065,0-2.7104c0.7962-0.3038,1.8634-0.1059,2.2722,0.4177
		c0.3503,0.4487,0.3553,1.2319,0.0109,1.7218C12.1034,32.9504,11.0499,33.2186,10.2334,32.9335z"/>
</g>
</svg>
