<?xml version="1.0" encoding="utf-8"?>
<!-- Generator: Adobe Illustrator 24.0.2, SVG Export Plug-In . SVG Version: 6.00 Build 0)  -->
<svg version="1.1" id="Capa_1" xmlns="http://www.w3.org/2000/svg" xmlns:xlink="http://www.w3.org/1999/xlink" x="0px" y="0px"
	 width="200px" height="28.8043px" viewBox="0 0 200 28.8043" style="enable-background:new 0 0 200 28.8043;" xml:space="preserve"
	>
<style type="text/css">
	.st0{fill:#E9531E;}
	.st1{fill:#F4B01C;}
</style>
<g>
	<path d="M52.9389,9.5189c-2.1404,0-4.2427,0-6.3652,0c-0.0213-0.2324-0.0238-0.4592-0.0656-0.6787
		c-0.1507-0.7928-0.6087-1.3763-1.326-1.7151c-1.3996-0.661-2.8525-0.7508-4.3207-0.2481
		c-0.6244,0.2138-1.1039,0.6157-1.2811,1.2898c-0.172,0.6544-0.0135,1.2101,0.5235,1.6403c0.5749,0.4605,1.2531,0.714,1.949,0.9023
		c1.5998,0.4329,3.213,0.8166,4.8112,1.2554c1.4325,0.3933,2.8179,0.912,4.0644,1.7461c1.8776,1.2564,2.8171,3.0075,2.8073,5.2688
		c-0.0084,1.95-0.4985,3.728-1.848,5.1981c-1.0873,1.1846-2.4621,1.8991-3.9829,2.347c-2.1604,0.6363-4.3686,0.7717-6.6033,0.5622
		c-1.5561-0.1459-3.0593-0.4978-4.462-1.2049c-2.6054-1.3136-4.0563-3.4308-4.3729-6.3245
		c-0.0364-0.3329-0.0441-0.669-0.0626-1.0037c-0.002-0.0365,0.0129-0.074,0.0221-0.1225c2.1198,0,4.2293,0,6.3484,0
		c0.0426,0.3062,0.068,0.6005,0.1264,0.8882c0.2842,1.4003,1.1105,2.3115,2.5025,2.6632c1.3663,0.3451,2.745,0.3754,4.0897-0.0834
		c0.445-0.1518,0.891-0.4064,1.2364-0.7231c0.9012-0.8264,0.8099-2.1672-0.1533-2.9186c-0.7725-0.6026-1.6937-0.8809-2.6167-1.1391
		c-1.6053-0.4491-3.2247-0.8497-4.8215-1.3265c-1.2619-0.3767-2.4638-0.9092-3.5332-1.7001
		c-1.9566-1.4473-2.6876-3.4236-2.4428-5.7855c0.2811-2.7119,1.9042-4.4301,4.2801-5.5216c2.234-1.0263,4.6019-1.3036,7.0347-1.0941
		c1.6612,0.1431,3.2494,0.5569,4.7048,1.3916c2.3609,1.354,3.6289,3.3864,3.7566,6.1132
		C52.9429,9.2929,52.9389,9.3905,52.9389,9.5189z"/>
	<path d="M55.3666,26.634c0-8.1601,0-16.3083,0-24.4972c0.1186,0,0.2238,0,0.329,0c3.8345,0,7.669-0.0105,11.5034,0.0051
		c1.5635,0.0063,3.0865,0.266,4.521,0.9256c2.2207,1.021,3.5493,2.746,3.9817,5.1369c0.3079,1.7027,0.2214,3.4051-0.2496,5.0714
		c-0.7142,2.5263-2.3991,4.0834-4.9081,4.781c-1.1305,0.3143-2.2874,0.4291-3.4584,0.4275
		c-1.6702-0.0023-3.3403-0.0003-5.0105-0.0001c-0.0971,0-0.1942,0-0.319,0c0,2.7243,0,5.4251,0,8.1498
		C59.6201,26.634,57.5115,26.634,55.3666,26.634z M61.7634,13.506c0.0375,0.0154,0.0549,0.0289,0.0722,0.0288
		c1.6296-0.0105,3.2615,0.0262,4.8883-0.0471c1.6425-0.0741,2.5686-1.0344,2.7332-2.6724c0.1701-1.6927-0.6179-2.9651-2.1201-3.3847
		c-0.3293-0.092-0.6794-0.1472-1.0209-0.1516c-1.462-0.0189-2.9243-0.0129-4.3865-0.0141c-0.0549,0-0.1098,0.019-0.1663,0.0295
		C61.7634,9.3795,61.7634,11.4465,61.7634,13.506z"/>
	<path d="M83.2521,7.6311c-2.4649,0-4.8739,0-7.3017,0c0-1.8324,0-3.6433,0-5.4743c6.9934,0,13.9769,0,20.9835,0
		c0,1.8141,0,3.6249,0,5.4686c-2.41,0-4.8258,0-7.2788,0c0,6.3534,0,12.6741,0,19.0139c-2.1475,0-4.2577,0-6.4031,0
		C83.2521,20.3164,83.2521,13.995,83.2521,7.6311z"/>
	<path class="st0" d="M9.6045,9.2454c2.7211-3.0083,2.7041-6.0174,0.129-9.1265c0.0947-0.0337,0.2045-0.0961,0.3198-0.1085
		c0.1808-0.0195,0.3653-0.0055,0.5482-0.0055c5.3859,0,10.7718-0.002,16.1577,0.007c0.22,0.0004,0.4547,0.0718,0.6572,0.165
		c0.7996,0.3684,1.4502,0.9337,1.9603,1.6412c0.3151,0.437,0.5389,0.9167,0.6986,1.4561c0.1899,0.6413,0.2382,1.2636,0.1843,1.9047
		c-0.1146,1.3624-0.8,2.4204-1.83,3.2778c-0.1851,0.1541-0.3871,0.2889-0.5872,0.4238c-0.3845,0.2591-0.7871,0.4026-1.2755,0.4012
		C21.0386,9.2661,15.5104,9.2716,9.9823,9.2701C9.8561,9.2701,9.7299,9.254,9.6045,9.2454z"/>
	<path class="st1" d="M29.0894,28.768c-2.7211-3.0083-2.7041-6.0174-0.129-9.1265c-0.0947-0.0337-0.2045-0.0961-0.3198-0.1085
		c-0.1808-0.0195-0.3653-0.0055-0.5482-0.0055c-5.3859,0-10.7718-0.002-16.1577,0.007c-0.22,0.0004-0.4547,0.0718-0.6572,0.165
		c-0.7996,0.3684-1.4502,0.9337-1.9603,1.6412c-0.3151,0.437-0.5389,0.9167-0.6986,1.4561
		c-0.1899,0.6413-0.2382,1.2636-0.1843,1.9047c0.1146,1.3624,0.8,2.4204,1.83,3.2778c0.1851,0.1541,0.3871,0.2889,0.5872,0.4238
		c0.3845,0.2591,0.7871,0.4026,1.2755,0.4012c5.5281-0.0156,11.0563-0.0101,16.5844-0.0116
		C28.8378,28.7926,28.964,28.7766,29.0894,28.768z"/>
	<path d="M0,18.8648c2.9699-2.3663,2.9195-6.5816,0.0211-8.8707C0.1399,9.985,0.2219,9.9732,0.3039,9.9732
		c5.7533-0.0009,11.5066-0.0011,17.2599,0.0006c0.0996,0,0.2102-0.0001,0.2972,0.0398c1.4595,0.6693,2.5963,1.6637,2.9946,3.2736
		c0.4603,1.8607-0.113,3.4186-1.5674,4.6581c-0.1235,0.1052-0.256,0.2-0.3867,0.2966c-0.5859,0.4329-1.2117,0.6426-1.9724,0.6386
		c-5.5193-0.0289-11.0389-0.0157-16.5584-0.0157C0.2712,18.8648,0.1717,18.8648,0,18.8648z"/>
	<path d="M172.6324,26.6955c-1.1298,0-2.1983,0.0096-3.2641-0.0117c-0.1392-0.0028-0.3315-0.1563-0.385-0.2537
		c-0.7833-1.4249-1.5594-2.8508-2.3041-4.2801c-0.1293-0.2483-0.3444-0.3366-0.9027-0.3292
		c-1.4431,0.0191-1.4439,0.0062-1.4438,0.692c0.0001,1.2836-0.0128,2.5672,0.011,3.8507c0.0047,0.2567-0.1283,0.3583-0.7164,0.3405
		c-0.8065-0.0244-1.6189-0.0061-2.4645-0.0061c0-4.5335,0-9.0321,0-13.5555c0.1534-0.0108,0.3156-0.032,0.4778-0.0321
		c1.9319-0.0004,3.8638,0.0065,5.7957,0.0028c1.5762-0.003,2.7914,0.3209,3.4131,0.976c0.5489,0.5783,0.9732,1.2,1.2052,1.8226
		c0.4478,1.2015,0.4216,2.4147-0.1681,3.612c-0.3089,0.6272-0.9035,1.183-1.9378,1.6303c-0.1622,0.0701-0.2228,0.2536-0.1623,0.3647
		c0.8764,1.61,1.7821,3.2166,2.6788,4.8243C172.5235,26.4477,172.5658,26.5543,172.6324,26.6955z M164.3831,19.3341
		c0.8678,0,1.6797-0.0095,2.4902,0.0025c0.9225,0.0137,1.542-0.1929,1.8224-0.5791c0.6308-0.8685,0.6292-1.7506,0.0268-2.623
		c-0.2417-0.3499-0.8055-0.5275-1.6215-0.5185c-0.7072,0.0078-1.4171,0.0164-2.1221-0.0036
		c-0.5178-0.0147-0.6604,0.0735-0.6558,0.3057c0.0206,1.0317,0.0076,2.0635,0.0108,3.0952
		C164.3342,19.1104,164.3629,19.2073,164.3831,19.3341z"/>
	<path d="M187.2196,19.9428c-0.0989,1.8276-0.4616,3.6032-2.0642,5.2603c-0.468,0.4839-1.1262,0.9549-1.9045,1.3404
		c-1.4917,0.7389-3.7174,0.7151-5.2992,0.0148c-1.2033-0.5328-1.8867-1.211-2.4068-1.9293
		c-1.1773-1.626-1.4787-3.3079-1.4417-5.0111c0.036-1.6544,0.3909-3.2894,1.7412-4.8327c0.4704-0.5376,1.1381-1.0667,1.9532-1.5028
		c1.506-0.8056,3.7343-0.804,5.4328-0.081c1.2982,0.5526,1.9939,1.2736,2.5298,2.0307c0.8269,1.1684,1.1796,2.3783,1.3405,3.6021
		C187.1507,19.2146,187.1828,19.5955,187.2196,19.9428z M177.1649,19.8261c0.1373,0.7073,0.2225,1.4178,0.4271,2.1208
		c0.188,0.6459,0.5357,1.2803,1.3735,1.8234c0.9691,0.6282,2.3456,0.6485,3.2544,0.0013c0.5293-0.3769,0.9543-0.8154,1.1698-1.2537
		c0.8413-1.7115,0.8069-3.4402,0.0391-5.1536c-0.2225-0.4965-0.665-1.0006-1.2571-1.4249
		c-0.9162-0.6565-2.3868-0.6131-3.2801,0.0475c-0.3391,0.2508-0.6064,0.5306-0.8084,0.8125
		C177.3807,17.7797,177.271,18.7999,177.1649,19.8261z"/>
	<path d="M141.6537,26.6933c0-0.4091,0-0.7689,0-1.1286c-0.0416-0.0092-0.0831-0.0185-0.1247-0.0277
		c-0.1041,0.0742-0.2029,0.1501-0.3132,0.2222c-0.3977,0.2599-0.7378,0.5467-1.2112,0.7723
		c-1.3203,0.6292-3.1022,0.637-4.4843,0.0402c-1.3091-0.5652-1.963-1.3096-2.4489-2.0822c-1.2382-1.9685-1.391-3.9856-1.119-6.0175
		c0.1694-1.2656,0.5645-2.5152,1.6127-3.692c0.4316-0.4846,0.9816-0.9674,1.6817-1.3745c1.7659-1.0269,4.2488-1.025,6.1269-0.0425
		c1.2555,0.6568,1.9658,1.451,2.5572,2.2715c0.0506,0.0702,0.0156,0.1823-0.0768,0.2421c-0.702,0.4547-1.4283,0.9012-2.2128,1.3914
		c-0.2271-0.2846-0.3867-0.5374-0.6275-0.7721c-0.2668-0.2599-0.5403-0.5295-0.9305-0.7484
		c-0.8751-0.4909-2.1974-0.5177-3.0582-0.0247c-0.5388,0.3086-0.9525,0.6952-1.2026,1.0781
		c-0.8703,1.3322-0.9355,2.7093-0.6929,4.0823c0.1331,0.7533,0.4633,1.5037,0.838,2.2406c0.1505,0.2959,0.5786,0.5853,1.0212,0.8195
		c0.9507,0.5031,2.2188,0.4698,3.1633-0.0395c0.0562-0.0303,0.112-0.0611,0.1607-0.094c0.922-0.623,1.0714-1.3308,1.1033-2.103
		c-0.8317,0-1.5982-0.0093-2.3629,0.0036c-0.4262,0.0072-0.5656-0.0682-0.5615-0.2604c0.0143-0.6719,0.0134-1.344,0.0008-2.0159
		c-0.0036-0.1922,0.1537-0.2677,0.5683-0.2661c1.5242,0.0061,3.0487,0.0056,4.573,0c0.384-0.0014,0.5298,0.0633,0.5293,0.2463
		c-0.0076,2.357-0.0021,4.714-0.014,7.0709c-0.0004,0.0694-0.1496,0.1969-0.2393,0.1988
		C143.1706,26.7004,142.4293,26.6933,141.6537,26.6933z"/>
	<path d="M190.388,22.7379c0.6254,0.4064,1.1428,0.814,1.8173,1.1536c0.3973,0.2,1.0151,0.3305,1.5851,0.4235
		c0.8662,0.1413,1.6265-0.0184,2.1612-0.3464c0.9439-0.5789,1.0849-1.2313,0.5774-1.9073c-0.2496-0.3325-0.8371-0.5263-1.539-0.6362
		c-0.5481-0.0858-1.1015-0.1651-1.6579-0.2385c-2.1676-0.286-3.4861-0.9678-4.0143-1.9643
		c-0.8717-1.6446-0.7702-3.2802,0.5492-4.8711c0.2728-0.3289,0.7204-0.643,1.218-0.911c1.4875-0.8012,3.7335-0.884,5.5335-0.2367
		c1.1158,0.4012,1.7832,0.9625,2.5259,1.504c0.5925,0.4321,0.674,0.7874-0.0657,1.206c-0.607,0.3435-1.048,0.751-1.6106,1.1655
		c-0.2872-0.2547-0.4735-0.4941-0.7923-0.6853c-0.4807-0.2883-0.9785-0.5926-1.605-0.8007
		c-1.0321-0.3429-2.1115-0.1738-2.6529,0.3643c-0.493,0.49-0.5629,1.0036-0.2529,1.5249c0.2225,0.3741,0.7952,0.5745,1.5655,0.686
		c0.7358,0.1065,1.453,0.2408,2.1863,0.3514c2.1337,0.3218,3.2074,1.0661,3.66,2.0355c0.7205,1.5432,0.5232,3.0694-0.6077,4.5577
		c-0.2685,0.3534-0.6673,0.6998-1.1449,1.0014c-1.7095,1.0794-4.9828,1.2021-7.0829,0.2846
		c-1.2744-0.5568-1.9739-1.2775-2.5726-2.0231c-0.0445-0.0554-0.0333-0.1453,0.0359-0.1921
		C188.9347,23.6905,189.6819,23.203,190.388,22.7379z"/>
	<path d="M107.9389,22.7078c0.4582,0.3443,0.7994,0.6861,1.3099,0.9587c0.4516,0.2412,1.0427,0.4521,1.6595,0.5929
		c1.0024,0.2289,2.0259,0.0771,2.6556-0.3529c0.8181-0.5587,0.9408-1.1744,0.4973-1.81c-0.2181-0.3125-0.717-0.5208-1.3759-0.6328
		c-0.4828-0.0821-0.9724-0.1598-1.4708-0.2167c-2.5877-0.2952-4.0475-1.1024-4.5539-2.2783
		c-0.6272-1.4564-0.5765-2.9181,0.4796-4.3323c0.3305-0.4425,0.8736-0.883,1.5417-1.2314c1.5689-0.818,3.8398-0.843,5.6342-0.1278
		c1.3242,0.5278,2.1108,1.2315,2.8629,1.9438c0.0629,0.0596,0.0582,0.1651-0.0146,0.2209c-0.7015,0.5371-1.4243,1.0682-2.1963,1.642
		c-0.2575-0.2345-0.4579-0.429-0.6811-0.6177c-0.4531-0.383-1.0122-0.7212-1.8699-0.9275
		c-0.9394-0.2259-1.8601-0.1149-2.3711,0.3161c-0.6469,0.5455-0.7258,1.1252-0.3039,1.715
		c0.2397,0.3351,0.8172,0.4896,1.4997,0.6015c1.0703,0.1755,2.1414,0.3556,3.1758,0.5716c1.483,0.3097,2.1732,0.9311,2.541,1.6173
		c0.9293,1.7336,0.6973,3.4447-0.7839,5.096c-0.966,1.0769-2.6768,1.5863-4.9436,1.5421c-1.4391-0.0281-2.5713-0.3487-3.4951-0.8478
		c-0.9565-0.5168-1.5458-1.1281-2.0538-1.759c-0.046-0.0572-0.0599-0.1479,0.0061-0.1926
		C106.4263,23.6994,107.183,23.2058,107.9389,22.7078z"/>
	<path d="M146.8539,13.1248c1.0845,0,2.1082,0,3.2354,0c0,0.1348-0.0003,0.2611,0,0.3875c0.0078,2.9892-0.0027,5.9785,0.046,8.9676
		c0.0063,0.39,0.2279,0.7937,0.5103,1.1643c0.2974,0.3904,1.0081,0.5891,1.9256,0.573c0.9202-0.0161,1.5188-0.2708,1.7018-0.6594
		c0.256-0.5436,0.4881-1.1027,0.4982-1.6562c0.0513-2.8085,0.0274-5.6174,0.0299-8.4261c0.0001-0.1078,0-0.2156,0-0.3452
		c1.0799,0,2.0956,0,3.1504,0c0.0166,0.1021,0.0434,0.1895,0.0432,0.277c-0.0074,2.8789,0.0103,5.7579-0.0416,8.6367
		c-0.019,1.0537-0.2906,2.1003-1.1318,3.094c-0.4716,0.5571-1.1062,1.0638-2.1298,1.444c-1.5311,0.5688-3.2639,0.5592-4.7525-0.0366
		c-1.531-0.6128-2.2758-1.4408-2.5705-2.3321c-0.3099-0.937-0.4957-1.8912-0.519-2.8391c-0.0658-2.678-0.0206-5.3565-0.0181-8.0348
		C146.8314,13.2804,146.8434,13.2213,146.8539,13.1248z"/>
	<path d="M129.7005,15.7033c-2.1308,0-4.224,0-6.3958,0c0,0.6676,0,1.2962,0,1.9249c0,0.5994,0.0001,0.5992,1.2959,0.5991
		c1.5437-0.0002,3.0874,0,4.7012,0c0.0148,0.1282,0.037,0.2345,0.0376,0.3407c0.0033,0.6117-0.0343,1.2241,0.0168,1.8349
		c0.0253,0.3029-0.2041,0.3688-0.8059,0.3611c-1.4801-0.019-2.9621-0.0068-4.4434-0.0055c-0.2325,0.0002-0.465,0.0091-0.7483,0.0151
		c0,1.0938,0,2.1682,0,3.2692c0.2748,0.006,0.5266,0.016,0.7783,0.0162c1.8462,0.0014,3.6926,0.0077,5.5384-0.0035
		c0.5045-0.0031,0.6738,0.0716,0.6643,0.3091c-0.0273,0.6817-0.0072,1.3638-0.0102,2.0457c-0.0006,0.1384,0.05,0.2883-0.4274,0.2877
		c-3.2187-0.0036-6.4375-0.0019-9.7224-0.0019c0-4.52,0-9.0256,0-13.5593c3.1416,0,6.3043,0,9.5208,0
		C129.7005,13.9692,129.7005,14.8051,129.7005,15.7033z"/>
	<path d="M102.6824,26.6979c-0.1876,0-0.3557,0-0.5617,0c0-5.1222,0-10.241,0-15.3822c0.1751,0,0.3541,0,0.5617,0
		C102.6824,16.4409,102.6824,21.5602,102.6824,26.6979z"/>
</g>
</svg>
